{ "success":true,
    "data" : {

"transactionList" : [
{
"@xsi:type":"arch.eve.com.evestar.transaction.model.Transaction",
"id": 1,
"full_name": "Simon Hill",
"transactionType": "CAR",
"followers": 7484
},
{
    "@xsi:type":"arch.eve.com.evestar.transaction.model.Transaction",
"id": 2,
"full_name": "Peter Graham",
"transactionType": "BIKE",
"followers": 7019
},
{
    "@xsi:type":"arch.eve.com.evestar.transaction.model.Transaction",
"id": 3,
"full_name": "Angelina Johnston",
"transactionType": "CAR",
"followers": 2700
},
{
    "@xsi:type":"arch.eve.com.evestar.transaction.model.Transaction",
"id": 4,
"full_name": "Josh Hunt",
"transactionType": "BIKE",
"followers": 3322
},
{
    "@xsi:type":"arch.eve.com.evestar.transaction.model.Transaction",
"id": 5,
"full_name": "Victor Wallace",
"transactionType": "CAR",
"followers": 5664
},
{
    "@xsi:type":"arch.eve.com.evestar.transaction.model.Transaction",
"id": 6,
"full_name": "Lorena Bishop",
"transactionType": "BIKE",
"followers": 4838
},
{
    "@xsi:type":"arch.eve.com.evestar.transaction.model.Transaction",
"id": 7,
"full_name": "Jack Daniels",
"transactionType": "CAR",
"followers": 3945
},
{
    "@xsi:type":"arch.eve.com.evestar.transaction.model.Transaction",
"id": 8,
"full_name": "Montgomery Burns",
"transactionType": "BIKE",
"followers": 327
},
{
    "@xsi:type":"arch.eve.com.evestar.transaction.model.Transaction",
"id": 9,
"full_name": "Scott Matt",
"transactionType": "BIKE",
"followers": 3442
},
{
    "@xsi:type":"arch.eve.com.evestar.transaction.model.Transaction",
"id": 10,
"full_name": "John Sanchez",
"transactionType": "CAR",
"followers": 4523
},
{
    "@xsi:type":"arch.eve.com.evestar.transaction.model.Transaction",
"id": 11,
"full_name": "Roger Marshall",
"transactionType": "CAR",
"followers": 5134
},
{
    "@xsi:type":"arch.eve.com.evestar.transaction.model.Transaction",
"id": 12,
"full_name": "Pedro Garcia",
"transactionType": "BIKE",
"followers": 1381
}
]
}
}